Dream Home/Investment
…
any(is.na(homedf$MasVnrArea))

## [1] FALSE

Fill in the electrical value with None

homedf$Electrical[is.na(homedf$Electrical)]<- "None"

New variables

combine the basement and ground level area squarefeet TotalLivingAreaSF

homedf %>% mutate( TotalLivingAreaSF = GrLivArea + BsmtFinSF1 + BsmtFinSF2)

## # A tibble: 1,460 x 82
##       Id MSSu~ MSZo~ LotF~ LotA~ Stre~ Alley LotS~ Land~ Util~ LotC~ Land~
##    <int> <int> <chr> <dbl> <int> <chr> <chr> <chr> <chr> <chr> <chr> <chr>
##  1     1    60 RL     65.0  8450 Pave  No A~ Reg   Lvl   AllP~ Insi~ Gtl  
##  2     2    20 RL     80.0  9600 Pave  No A~ Reg   Lvl   AllP~ FR2   Gtl  
##  3     3    60 RL     68.0 11250 Pave  No A~ IR1   Lvl   AllP~ Insi~ Gtl  
##  4     4    70 RL     60.0  9550 Pave  No A~ IR1   Lvl   AllP~ Corn~ Gtl  
##  5     5    60 RL     84.0 14260 Pave  No A~ IR1   Lvl   AllP~ FR2   Gtl  
##  6     6    50 RL     85.0 14115 Pave  No A~ IR1   Lvl   AllP~ Insi~ Gtl  
##  7     7    20 RL     75.0 10084 Pave  No A~ Reg   Lvl   AllP~ Insi~ Gtl  
##  8     8    60 RL     70.0 10382 Pave  No A~ IR1   Lvl   AllP~ Corn~ Gtl  
##  9     9    50 RM     51.0  6120 Pave  No A~ Reg   Lvl   AllP~ Insi~ Gtl  
## 10    10   190 RL     50.0  7420 Pave  No A~ Reg   Lvl   AllP~ Corn~ Gtl  
## # ... with 1,450 more rows, and 70 more variables: Neighborhood <chr>,
## #   Condition1 <chr>, Condition2 <chr>, BldgType <chr>, HouseStyle <chr>,
## #   OverallQual <int>, OverallCond <int>, YearBuilt <int>, YearRemodAdd
## #   <int>, RoofStyle <chr>, RoofMatl <chr>, Exterior1st <chr>, Exterior2nd
## #   <chr>, MasVnrType <chr>, MasVnrArea <chr>, ExterQual <chr>, ExterCond
## #   <chr>, Foundation <chr>, BsmtQual <chr>, BsmtCond <chr>, BsmtExposure
## #   <chr>, BsmtFinType1 <chr>, BsmtFinSF1 <int>, BsmtFinType2 <chr>,
## #   BsmtFinSF2 <int>, BsmtUnfSF <int>, TotalBsmtSF <int>, Heating <chr>,
## #   HeatingQC <chr>, CentralAir <chr>, Electrical <chr>, X1stFlrSF <int>,
…
 summary(homedf$TotalLivingAreaSF)

## Warning: Unknown or uninitialised column: 'TotalLivingAreaSF'.

## Length  Class   Mode 
##      0   NULL   NULL

#Create new column total number of bathrooms in ground level & basement 
homedf %>% mutate( TotNoBath = FullBath + HalfBath ,TotNoBsmtBath = BsmtFullBath +
BsmtHalfBath )

## # A tibble: 1,460 x 83
##       Id MSSu~ MSZo~ LotF~ LotA~ Stre~ Alley LotS~ Land~ Util~ LotC~ Land~
##    <int> <int> <chr> <dbl> <int> <chr> <chr> <chr> <chr> <chr> <chr> <chr>
##  1     1    60 RL     65.0  8450 Pave  No A~ Reg   Lvl   AllP~ Insi~ Gtl  
##  2     2    20 RL     80.0  9600 Pave  No A~ Reg   Lvl   AllP~ FR2   Gtl  
##  3     3    60 RL     68.0 11250 Pave  No A~ IR1   Lvl   AllP~ Insi~ Gtl  
##  4     4    70 RL     60.0  9550 Pave  No A~ IR1   Lvl   AllP~ Corn~ Gtl  
##  5     5    60 RL     84.0 14260 Pave  No A~ IR1   Lvl   AllP~ FR2   Gtl  
##  6     6    50 RL     85.0 14115 Pave  No A~ IR1   Lvl   AllP~ Insi~ Gtl  
##  7     7    20 RL     75.0 10084 Pave  No A~ Reg   Lvl   AllP~ Insi~ Gtl  
##  8     8    60 RL     70.0 10382 Pave  No A~ IR1   Lvl   AllP~ Corn~ Gtl  
##  9     9    50 RM     51.0  6120 Pave  No A~ Reg   Lvl   AllP~ Insi~ Gtl  
## 10    10   190 RL     50.0  7420 Pave  No A~ Reg   Lvl   AllP~ Corn~ Gtl  
## # ... with 1,450 more rows, and 71 more variables: Neighborhood <chr>,
## #   Condition1 <chr>, Condition2 <chr>, BldgType <chr>, HouseStyle <chr>,
## #   OverallQual <int>, OverallCond <int>, YearBuilt <int>, YearRemodAdd
## #   <int>, RoofStyle <chr>, RoofMatl <chr>, Exterior1st <chr>, Exterior2nd
## #   <chr>, MasVnrType <chr>, MasVnrArea <chr>, ExterQual <chr>, ExterCond
## #   <chr>, Foundation <chr>, BsmtQual <chr>, BsmtCond <chr>, BsmtExposure
## #   <chr>, BsmtFinType1 <chr>, BsmtFinSF1 <int>, BsmtFinType2 <chr>,
## #   BsmtFinSF2 <int>, BsmtUnfSF <int>, TotalBsmtSF <int>, Heating <chr>,
## #   HeatingQC <chr>, CentralAir <chr>, Electrical <chr>, X1stFlrSF <int>,
## #   X2ndFlrSF <int>, LowQualFinSF <int>, GrLivArea <int>, BsmtFullBath
## #   <int>, BsmtHalfBath <int>, FullBath <int>, HalfBath <int>,
## #   BedroomAbvGr <int>, KitchenAbvGr <int>, KitchenQual <chr>,
## #   TotRmsAbvGrd <int>, Functional <chr>, Fireplaces <int>, FireplaceQu
## #   <chr>, GarageType <chr>, GarageYrBlt <chr>, GarageFinish <chr>,
## #   GarageCars <int>, GarageArea <int>, GarageQual <chr>, GarageCond
## #   <chr>, PavedDrive <chr>, WoodDeckSF <int>, OpenPorchSF <int>,
## #   EnclosedPorch <int>, X3SsnPorch <int>, ScreenPorch <int>, PoolArea
## #   <int>, PoolQC <chr>, Fence <chr>, MiscFeature <chr>, MiscVal <int>,
## #   MoSold <int>, YrSold <int>, SaleType <chr>, SaleCondition <chr>,
## #   SalePrice <int>, TotNoBath <int>, TotNoBsmtBath <int>

homedf

## # A tibble: 1,460 x 81
##       Id MSSu~ MSZo~ LotF~ LotA~ Stre~ Alley LotS~ Land~ Util~ LotC~ Land~
##    <int> <int> <chr> <dbl> <int> <chr> <chr> <chr> <chr> <chr> <chr> <chr>
##  1     1    60 RL     65.0  8450 Pave  No A~ Reg   Lvl   AllP~ Insi~ Gtl  
##  2     2    20 RL     80.0  9600 Pave  No A~ Reg   Lvl   AllP~ FR2   Gtl  
##  3     3    60 RL     68.0 11250 Pave  No A~ IR1   Lvl   AllP~ Insi~ Gtl  
##  4     4    70 RL     60.0  9550 Pave  No A~ IR1   Lvl   AllP~ Corn~ Gtl  
##  5     5    60 RL     84.0 14260 Pave  No A~ IR1   Lvl   AllP~ FR2   Gtl  
##  6     6    50 RL     85.0 14115 Pave  No A~ IR1   Lvl   AllP~ Insi~ Gtl  
##  7     7    20 RL     75.0 10084 Pave  No A~ Reg   Lvl   AllP~ Insi~ Gtl  
##  8     8    60 RL     70.0 10382 Pave  No A~ IR1   Lvl   AllP~ Corn~ Gtl  
##  9     9    50 RM     51.0  6120 Pave  No A~ Reg   Lvl   AllP~ Insi~ Gtl  
## 10    10   190 RL     50.0  7420 Pave  No A~ Reg   Lvl   AllP~ Corn~ Gtl  
## # ... with 1,450 more rows, and 69 more variables: Neighborhood <chr>,
## #   Condition1 <chr>, Condition2 <chr>, BldgType <chr>, HouseStyle <chr>,
## #   OverallQual <int>, OverallCond <int>, YearBuilt <int>, YearRemodAdd
## #   <int>, RoofStyle <chr>, RoofMatl <chr>, Exterior1st <chr>, Exterior2nd
## #   <chr>, MasVnrType <chr>, MasVnrArea <chr>, ExterQual <chr>, ExterCond
## #   <chr>, Foundation <chr>, BsmtQual <chr>, BsmtCond <chr>, BsmtExposure
## #   <chr>, BsmtFinType1 <chr>, BsmtFinSF1 <int>, BsmtFinType2 <chr>,
## #   BsmtFinSF2 <int>, BsmtUnfSF <int>, TotalBsmtSF <int>, Heating <chr>,
## #   HeatingQC <chr>, CentralAir <chr>, Electrical <chr>, X1stFlrSF <int>,
…
# New column Age of the House- "AgeOfHouse"
homedf %>% mutate(AgeOfHouse = YrSold- YearBuilt)

## # A tibble: 1,460 x 82
##       Id MSSu~ MSZo~ LotF~ LotA~ Stre~ Alley LotS~ Land~ Util~ LotC~ Land~
##    <int> <int> <chr> <dbl> <int> <chr> <chr> <chr> <chr> <chr> <chr> <chr>
##  1     1    60 RL     65.0  8450 Pave  No A~ Reg   Lvl   AllP~ Insi~ Gtl  
##  2     2    20 RL     80.0  9600 Pave  No A~ Reg   Lvl   AllP~ FR2   Gtl  
##  3     3    60 RL     68.0 11250 Pave  No A~ IR1   Lvl   AllP~ Insi~ Gtl  
##  4     4    70 RL     60.0  9550 Pave  No A~ IR1   Lvl   AllP~ Corn~ Gtl  
##  5     5    60 RL     84.0 14260 Pave  No A~ IR1   Lvl   AllP~ FR2   Gtl  
##  6     6    50 RL     85.0 14115 Pave  No A~ IR1   Lvl   AllP~ Insi~ Gtl  
##  7     7    20 RL     75.0 10084 Pave  No A~ Reg   Lvl   AllP~ Insi~ Gtl  
##  8     8    60 RL     70.0 10382 Pave  No A~ IR1   Lvl   AllP~ Corn~ Gtl  
##  9     9    50 RM     51.0  6120 Pave  No A~ Reg   Lvl   AllP~ Insi~ Gtl  
## 10    10   190 RL     50.0  7420 Pave  No A~ Reg   Lvl   AllP~ Corn~ Gtl  
## # ... with 1,450 more rows, and 70 more variables: Neighborhood <chr>,
## #   Condition1 <chr>, Condition2 <chr>, BldgType <chr>, HouseStyle <chr>,
## #   OverallQual <int>, OverallCond <int>, YearBuilt <int>, YearRemodAdd
## #   <int>, RoofStyle <chr>, RoofMatl <chr>, Exterior1st <chr>, Exterior2nd
## #   <chr>, MasVnrType <chr>, MasVnrArea <chr>, ExterQual <chr>, ExterCond
## #   <chr>, Foundation <chr>, BsmtQual <chr>, BsmtCond <chr>, BsmtExposure
## #   <chr>, BsmtFinType1 <chr>, BsmtFinSF1 <int>, BsmtFinType2 <chr>,
## #   BsmtFinSF2 <int>, BsmtUnfSF <int>, TotalBsmtSF <int>, Heating <chr>,
## #   HeatingQC <chr>, CentralAir <chr>, Electrical <chr>, X1stFlrSF <int>,
…
homedf %>% count(homedf$Neighborhood)

## # A tibble: 25 x 2
##    `homedf$Neighborhood`     n
##    <chr>                 <int>
##  1 Blmngtn                  17
##  2 Blueste                   2
##  3 BrDale                   16
##  4 BrkSide                  58
##  5 ClearCr                  28
##  6 CollgCr                 150
##  7 Crawfor                  51
##  8 Edwards                 100
##  9 Gilbert                  79
## 10 IDOTRR                   37
## # ... with 15 more rows
…
## # A tibble: 2 x 3
##   Utilities     n mean_SalePrice
##   <chr>     <int>          <dbl>
## 1 AllPub     1459         180951
## 2 NoSeWa        1         137500

Except one utility variable got the same value.

# Drop the Utility variable
homedf %>% 
  dplyr::select(everything(), -Utilities)

## # A tibble: 1,460 x 80
##       Id MSSu~ MSZo~ LotF~ LotA~ Stre~ Alley LotS~ Land~ LotC~ Land~ Neig~
##    <int> <int> <chr> <dbl> <int> <fct> <chr> <chr> <chr> <chr> <chr> <chr>
##  1     1    60 RL     65.0  8450 Pave  No A~ Reg   Lvl   Insi~ Gtl   Coll~
##  2     2    20 RL     80.0  9600 Pave  No A~ Reg   Lvl   FR2   Gtl   Veen~
##  3     3    60 RL     68.0 11250 Pave  No A~ IR1   Lvl   Insi~ Gtl   Coll~
##  4     4    70 RL     60.0  9550 Pave  No A~ IR1   Lvl   Corn~ Gtl   Craw~
##  5     5    60 RL     84.0 14260 Pave  No A~ IR1   Lvl   FR2   Gtl   NoRi~
##  6     6    50 RL     85.0 14115 Pave  No A~ IR1   Lvl   Insi~ Gtl   Mitc~
##  7     7    20 RL     75.0 10084 Pave  No A~ Reg   Lvl   Insi~ Gtl   Some~
##  8     8    60 RL     70.0 10382 Pave  No A~ IR1   Lvl   Corn~ Gtl   NWAm~
##  9     9    50 RM     51.0  6120 Pave  No A~ Reg   Lvl   Insi~ Gtl   OldT~
## 10    10   190 RL     50.0  7420 Pave  No A~ Reg   Lvl   Corn~ Gtl   BrkS~
## # ... with 1,450 more rows, and 68 more variables: Condition1 <chr>,
## #   Condition2 <chr>, BldgType <chr>, HouseStyle <chr>, OverallQual <int>,
## #   OverallCond <int>, YearBuilt <int>, YearRemodAdd <int>, RoofStyle
## #   <chr>, RoofMatl <chr>, Exterior1st <chr>, Exterior2nd <chr>,
## #   MasVnrType <chr>, MasVnrArea <chr>, ExterQual <chr>, ExterCond <chr>,
## #   Foundation <chr>, BsmtQual <chr>, BsmtCond <chr>, BsmtExposure <chr>,
## #   BsmtFinType1 <chr>, BsmtFinSF1 <int>, BsmtFinType2 <chr>, BsmtFinSF2
## #   <int>, BsmtUnfSF <int>, TotalBsmtSF <int>, Heating <chr>, HeatingQC
## #   <chr>, CentralAir <chr>, Electrical <chr>, X1stFlrSF <int>, X2ndFlrSF
…
homedf %>% 
  group_by(Neighborhood) %>% 
  dplyr::summarise(n = n(), 
            mean_SalePrice = mean(SalePrice))

## # A tibble: 25 x 3
##    Neighborhood     n mean_SalePrice
##    <chr>        <int>          <dbl>
##  1 Blmngtn         17         194871
##  2 Blueste          2         137500
##  3 BrDale          16         104494
##  4 BrkSide         58         124834
##  5 ClearCr         28         212565
##  6 CollgCr        150         197966
##  7 Crawfor         51         210625
##  8 Edwards        100         128220
##  9 Gilbert         79         192855
## 10 IDOTRR          37         100124
## # ... with 15 more rows
…
## 
##  Ex  Fa  Gd  TA 
##  52  14 488 906

 table(homedf$ExterCond)

## 
##   Ex   Fa   Gd   Po   TA 
##    3   28  146    1 1282

Basement

homedf %>% count(homedf$BsmtQual,BsmtFullBath,BsmtHalfBath)

## # A tibble: 23 x 4
##    `homedf$BsmtQual` BsmtFullBath BsmtHalfBath     n
##    <chr>                    <int>        <int> <int>
##  1 Ex                           0            0    38
##  2 Ex                           0            1     2
##  3 Ex                           0            2     1
##  4 Ex                           1            0    76
##  5 Ex                           1            1     2
##  6 Ex                           2            0     2
##  7 Fa                           0            0    28
##  8 Fa                           0            1     1
##  9 Fa                           1            0     5
## 10 Fa                           1            1     1
## # ... with 13 more rows
…
It looks like 829 homes doesnt have a second floor.

summary(homedf$GrLivArea)

##    Min. 1st Qu.  Median    Mean 3rd Qu.    Max. 
##     334    1130    1464    1515    1777    5642

homedf %>% count(homedf$GrLivArea,BedroomAbvGr)

## # A tibble: 1,065 x 3
##    `homedf$GrLivArea` BedroomAbvGr     n
##                 <int>        <int> <int>
##  1                334            1     1
##  2                438            1     1
##  3                480            1     1
##  4                520            1     1
##  5                605            2     1
##  6                616            2     1
##  7                630            1     6
##  8                672            2     2
##  9                691            2     1
## 10                693            2     1
## # ... with 1,055 more rows
…
homedf %>% count(homedf$BedroomAbvGr,FullBath,HalfBath,BsmtFullBath == 1)

## # A tibble: 63 x 5
##    `homedf$BedroomAbvGr` FullBath HalfBath `BsmtFullBath == 1`     n
##                    <int>    <int>    <int> <lgl>               <int>
##  1                     0        0        0 F                       1
##  2                     0        0        0 T                       1
##  3                     0        0        1 F                       2
##  4                     0        0        2 F                       1
##  5                     0        1        1 T                       1
##  6                     1        0        0 T                       1
##  7                     1        0        1 T                       1
##  8                     1        1        0 F                       8
##  9                     1        1        0 T                      21
## 10                     1        1        1 F                       2
## # ... with 53 more rows

 homedf%>%
  select(SalePrice, FullBath )

## # A tibble: 1,460 x 2
##    SalePrice FullBath
##        <int>    <int>
##  1    208500        2
##  2    181500        2
##  3    223500        2
##  4    140000        1
##  5    250000        2
##  6    143000        1
##  7    307000        2
##  8    200000        2
##  9    129900        2
## 10    118000        1
## # ... with 1,450 more rows
…
